# Reproducible Research: Course Project 1
This assignment makes use of data from a personal activity monitoring device. This device collects data at 5 minute intervals through out the day. The data consists of two months of data from an anonymous individual collected during the months of October and November, 2012 and include the number of steps taken in 5 minute intervals each day.

### Loading and processing the data


```r
library(readr)
data <- read_csv('./repdata_data_activity/activity.csv', col_types = cols())
data
```

```
# A tibble: 17,568 x 3
   steps date       interval
   <dbl> <date>        <dbl>
 1    NA 2012-10-01        0
 2    NA 2012-10-01        5
 3    NA 2012-10-01       10
 4    NA 2012-10-01       15
 5    NA 2012-10-01       20
 6    NA 2012-10-01       25
 7    NA 2012-10-01       30
 8    NA 2012-10-01       35
 9    NA 2012-10-01       40
10    NA 2012-10-01       45
# ... with 17,558 more rows
```
…
### Mean and median number of steps taken each day


```r
summarize(groupedByDate, mean = mean(steps), median = median(steps))
```

```
# A tibble: 61 x 3
   date         mean median
   <date>      <dbl>  <dbl>
 1 2012-10-01 NA         NA
 2 2012-10-02  0.438      0
 3 2012-10-03 39.4        0
 4 2012-10-04 42.1        0
 5 2012-10-05 46.2        0
 6 2012-10-06 53.5        0
 7 2012-10-07 38.2        0
 8 2012-10-08 NA         NA
 9 2012-10-09 44.5        0
10 2012-10-10 34.4        0
# ... with 51 more rows
```
…
Which means that no single day/date has both NAs and numeric values when grouped by dates.
```

So, we'll impute the missing values based on average of 5 minute interval for all days.

```r
groupedByIntervals <- group_by(data, interval)
imputedData <- groupedByIntervals %>% summarise(mean = mean(steps, na.rm = TRUE)) %>%
  merge(data, ., all.x = TRUE) %>% mutate(steps = ifelse(is.na(steps)==TRUE, mean, steps)) %>% 
  select(-mean) %>% as_tibble() %>% arrange(date)
imputedData
```

```
# A tibble: 17,568 x 3
   interval  steps date      
      <dbl>  <dbl> <date>    
 1        0 1.72   2012-10-01
 2        5 0.340  2012-10-01
 3       10 0.132  2012-10-01
 4       15 0.151  2012-10-01
 5       20 0.0755 2012-10-01
 6       25 2.09   2012-10-01
 7       30 0.528  2012-10-01
 8       35 0.868  2012-10-01
 9       40 0      2012-10-01
10       45 1.47   2012-10-01
# ... with 17,558 more rows
```
…
Mean and median of imputed data


```r
gbd <- group_by(imputedData, date)
summarise(gbd, mean = mean(steps), median = median(steps))
```

```
# A tibble: 61 x 3
   date         mean median
   <date>      <dbl>  <dbl>
 1 2012-10-01 37.4     34.1
 2 2012-10-02  0.438    0  
 3 2012-10-03 39.4      0  
 4 2012-10-04 42.1      0  
 5 2012-10-05 46.2      0  
 6 2012-10-06 53.5      0  
 7 2012-10-07 38.2      0  
 8 2012-10-08 37.4     34.1
 9 2012-10-09 44.5      0  
10 2012-10-10 34.4      0  
# ... with 51 more rows
```
It can be seen from the data that the mean and median for non-impued days are still the same.
However, the mean and median for the imputed days have increased, increasing overall activity.

### Dataset with a coulmn "Day", indicating Weekend or Weekday


```r
l <- list(weekdays = c("Monday", "Tuesday", "Wednesday", "Thursday", "Friday"), weekends = c("Saturday", "Sunday"))
gbd <- mutate(gbd, day = ifelse(weekdays(date) %in% l$weekdays, "Weekday", "Weekend"))
gbd$day <- as.factor(gbd$day)
gbd
```

```
# A tibble: 17,568 x 4
# Groups:   date [61]
   interval  steps date       day    
      <dbl>  <dbl> <date>     <fct>  
 1        0 1.72   2012-10-01 Weekday
 2        5 0.340  2012-10-01 Weekday
 3       10 0.132  2012-10-01 Weekday
 4       15 0.151  2012-10-01 Weekday
 5       20 0.0755 2012-10-01 Weekday
 6       25 2.09   2012-10-01 Weekday
 7       30 0.528  2012-10-01 Weekday
 8       35 0.868  2012-10-01 Weekday
 9       40 0      2012-10-01 Weekday
10       45 1.47   2012-10-01 Weekday
# ... with 17,558 more rows
```
…
